{
  "RebornOSFIRE": {
    "ProgramsTab": {
      "AddonsTab": {
        "Addons": "Аддоны",
        "ControlMycroft": "управление Mycroft",
        "InstallAnbox": "Установить Anbox",
        "RemoveAnbox": "Удалить Anbox",
        "RemoveMycroft": "Удалить Mycroft"
      },
      "Programs": "Программы",
      "ToolsTab": {
        "ArchKernelManager": "Arch менеджер ядра",
        "PacmanSettings": "Настройки Pacman",
        "Pamac": "Программное обеспечение Pamac",
        "Stacer": "Stacer",
        "Tools": "Инструменты"
      },
      "WormholeTab": {
        "EnterCode": "Введите код для получения файла/папки (нажмите клавишу Enter).",
        "SelectFile": "Выберите Файл",
        "SelectFolder": "Выберите папку",
        "WhatIsWormhole": "Что такое Wormhole?",
        "Wormhole": "Wormhole",
        "WormholeDescription": "Короче говоря, Wormhole - это чрезвычайно безопасная, частная и открытая альтернатива птичьим Airdrop. Или любой другой файлообменный сервис. И в отличие от Airdrop, Wormhole позволяет обмениваться файлами или каталогами с любым компьютером в мире. В любом случае, если вам интересно, вот страница Github:\nhttps://github.com/warner/magic-wormhole"
      }
    },
    "RebornOSCustomizationTab": {
      "DesktopEnvironmentsTab": {
        "Budgie": "Budgie",
        "Cinnamon": "Cinnamon",
        "Deepin": "Deepin",
        "DesktopEnvironments": "Окружающая среда рабочего стола",
        "Enlightenment": "Enlightenment",
        "GNOME": "GNOME",
        "InstallButton": "Установить",
        "KDEplasma": "KDE Plasma",
        "LXQt": "LXQt",
        "Mate": "Mate",
        "OpenBox": "OpenBox",
        "XFCE": "XFCE",
        "i3": "i3"
      },
      "DisplayManagersTab": {
        "DisplayManagers": "Менеджеры дисплеев",
        "LightDMColumn": {
          "DefaultDM": "Установлен в качестве DM по умолчанию",
          "LightDM": "Light Display Manager (Light DM)",
          "TestGreeter": "Выберите Зеленый для тестирования:",
          "UseGreeter": "Выберите \"Зеленый\":"
        },
        "SDDMColumn": {
          "DefaultDM": "Установлен в качестве DM по умолчанию",
          "SDDM": "Simple Desktop Display Manager (SDDM)",
          "TestTheme": "Выберите тему для тестирования:",
          "UseTheme": "Выберите тему для использования:"
        }
      },
      "RebornOSCustomization": "Персонализация RebornOS"
    },
    "RollbackTab": {
      "InsertOptionNumber": "Вставьте номер опции, чтобы вернуться назад (затем нажмите Enter).",
      "Rollback": "Откат",
      "RollbackSystem": "Откатите вашу систему в предыдущее состояние.",
      "UpgradeToCurrent": "Снова обновление до текущих пакетов"
    },
    "Settings": {
      "DeepinTerminal": "Deepin Терминал",
      "ExitSettings": "Выход",
      "GnomeTerminal": "GNOME Терминал",
      "Konsole": "Konsole",
      "LXTerminal": "LXTerminal",
      "MateTerminal": "Терминал MATE",
      "SelectTerminal": "Выберите терминал...",
      "SettingsDialog": "Настройки",
      "TerminalSelectionDialog": "Пожалуйста, выберите ваш любимый терминал:",
      "Terminology": "Terminology",
      "Xfce4Terminal": "Терминал XFCE4",
      "Xterm": "Xterm"
    },
    "SystemTasksTab": {
      "RepairTab": {
        "Apply": "применять",
        "Downgrade": "рейтинга",
        "DowngradeDialog": {
          "DowngradeButton": "рейтинга",
          "DowngradeInsert": "Пожалуйста, вставьте пакет для понижения"
        },
        "RebuildGrub": "Перестроить Grub (начальный загрузчик)",
        "ReinstallGrub": "Переустановить Grub (начальный загрузчик)",
        "RemovePackage": "Удалить пакет (оставив зависимость)",
        "RemovePackageDialog": {
          "RemoveButton": "Удалить пакет",
          "RemoveInsert": "Пожалуйста, вставьте пакет для удаления"
        },
        "Repair": "Ремонт",
        "SaveRecover": "Сохранить/восстановить программы",
        "SaveRecoverDialog": {
          "RecoverFromButton": "Восстановись:",
          "SaveToButton": "Спасибо:"
        }
      },
      "SystemMaintenanceTab": {
        "Apply": "применять",
        "CacheLeave": "Очистить кэш (Оставляя последние 3 новые версии пакетов)",
        "CacheRemove": "Очистить кэш (Удаление всех пакетов из кэша)",
        "CleanJournal": "Чистый журнал",
        "RankMirrors": "Зеркала ранга",
        "RemoveUnnecessaryPrograms": "Удалить ненужные программы",
        "RemoveUnnecessaryProgramsDialog": {
          "EditListButton": "Сохранить редактированный список",
          "RemovePackagesButton": "Удалить пакеты"
        },
        "SystemMaintenance": "обслуживание системы"
      },
      "SystemTasks": "Задачи системы"
    }
  }
}
